<?xml version="1.0" encoding="utf-8"?>
<!-- Generator: Adobe Illustrator 22.0.1, SVG Export Plug-In . SVG Version: 6.00 Build 0)  -->
<svg version="1.1" id="Layer_1" xmlns="http://www.w3.org/2000/svg" xmlns:xlink="http://www.w3.org/1999/xlink" x="0px" y="0px"
	 viewBox="0 0 512 512" style="enable-background:new 0 0 512 512;" xml:space="preserve">
<style type="text/css">
	.st0{fill:#343434;}
</style>
<g>
	<g>
		<path class="st0" d="M488.9,379.3l-171-134.7c-4.9-3.8-12.1-0.4-12.1,5.9v86.8H185.3c-4.1,0-7.5,3.3-7.5,7.5s3.3,7.5,7.5,7.5h128
			c4.1,0,7.5-3.3,7.5-7.5v-78.9l151.4,119.2L319.4,499.6v-75.3c0-4.1-3.3-7.5-7.5-7.5H139.5c-67.1,0-107.7-39.8-120.4-104.6
			c4.4,3.8,9.8,7.9,16.2,12c45.9,29.3,93.5,28.1,120.7,28.1c4.1,0,7.5-3.3,7.5-7.5s-3.3-7.5-7.5-7.5c-21.2,0-68.1,2.4-111.9-25.3
			c-19.8-12.5-29-25.3-29.1-25.4c-4.2-6-13.8-2.9-13.6,4.5c0,1.4,1.1,35.4,18.5,69.8c16.3,32.3,50.2,70.8,119.6,70.8h165v82.8
			c0,6.1,7,9.7,11.9,6l172.4-129.3c1.9-1.4,3-3.6,3-5.9C491.8,383,490.8,380.8,488.9,379.3z"/>
	</g>
</g>
<g>
	<g>
		<path class="st0" d="M473.3,161c-16.3-32.3-50.2-70.8-119.6-70.8h-19.1c-4.1,0-7.5,3.3-7.5,7.5s3.3,7.5,7.5,7.5h19.1
			c67.1,0,107.7,39.8,120.4,104.6c-32.8-27.9-76.8-40.1-120.4-40.1H179.9c-4.1,0-7.5,3.3-7.5,7.5v78.9L21.1,136.9L173.8,22.4v75.3
			c0,4.1,3.3,7.5,7.5,7.5h124.9c4.1,0,7.5-3.3,7.5-7.5s-3.3-7.5-7.5-7.5H188.7V7.5c0-6.1-7-9.7-11.9-6L4.3,130.8
			c-3.9,2.9-4,8.8-0.1,11.8l171.1,134.7c4.9,3.9,12.1,0.4,12.1-5.9v-86.8h166.3c45.8,0,77.2,13.8,95.5,25.3
			c19.8,12.5,29,25.3,29.1,25.4c4.2,6,13.8,2.9,13.6-4.5C491.7,229.4,490.6,195.5,473.3,161z"/>
	</g>
</g>
</svg>
